<svg width="27" height="27" viewBox="0 0 27 27" fill="none" xmlns="http://www.w3.org/2000/svg">
<path d="M27 13.5C27 20.952 20.952 27 13.5 27C6.048 27 0 20.952 0 13.5C0 6.048 6.048 0 13.5 0C20.952 0 27 6.048 27 13.5Z" fill="#3B5998"/>
<path d="M16.8483 14.04H14.4723V22.896H10.8003V14.04H9.07227V10.908H10.8003V8.96399C10.8003 7.55999 11.4483 5.29199 14.4723 5.29199H17.1723V8.31599H15.2283C14.9043 8.31599 14.4723 8.42399 14.4723 9.17999V11.016H17.1723L16.8483 14.04Z" fill="white"/>
</svg>
