<svg width="30" height="42" viewBox="0 0 30 42" fill="none" xmlns="http://www.w3.org/2000/svg">
<path fill-rule="evenodd" clip-rule="evenodd" d="M23.8341 23.6719C23.7568 25.1865 19.8158 27.6825 17.1266 24.0505C17.9534 24.6842 18.7957 25.6811 20.4726 25.6811C22.6132 25.6811 23.6332 24.2746 23.8341 23.6719Z" fill="#DE0B8C"/>
<path fill-rule="evenodd" clip-rule="evenodd" d="M5.76709 23.6719C5.84437 25.1865 9.78543 27.6825 12.4746 24.0505C11.6478 24.6842 10.8055 25.6811 9.12858 25.6811C6.98805 25.6811 5.96801 24.2746 5.76709 23.6719Z" fill="#DE0B8C"/>
<path fill-rule="evenodd" clip-rule="evenodd" d="M10.6818 33.3778C11.1763 34.2279 11.895 34.0579 12.3355 34.0347C13.5255 33.9806 13.881 34.5215 15.0942 34.3129C15.5115 34.2433 15.9133 33.9342 17.1652 34.0501C16.1065 35.0315 13.5332 35.2788 11.6709 34.1506C12.5673 35.6575 13.5255 35.8584 14.6615 35.8507C15.8129 35.8507 16.9875 35.2634 17.7757 34.3361C18.1543 34.0038 18.2625 34.1429 18.788 33.8492C18.9734 33.7488 18.9193 33.6638 18.788 33.5865C16.9256 33.6328 16.7865 32.6128 15.9442 32.8369C15.6506 32.9142 15.411 33.061 15.2256 33.2001C14.7387 33.5865 14.8546 33.4783 14.391 33.1306C14.1592 32.9605 13.9737 32.8678 13.6337 32.8137C12.9614 32.7133 12.2505 33.8492 10.6818 33.3778Z" fill="#DE0B8C"/>
<path fill-rule="evenodd" clip-rule="evenodd" d="M26.2993 22.9929C26.2607 23.0393 26.1989 23.1166 26.1448 23.2093C27.1184 18.7891 24.7074 9.4156 13.6416 8.61194C17.3431 7.57644 22.2423 7.69236 26.1602 9.26878C25.8743 8.49602 19.1822 4.94907 11.5474 7.63826C6.02991 9.57788 1.98839 16.8573 3.15526 22.707C2.76888 22.3206 2.25886 22.0347 1.7102 22.0347C-0.994446 11.7416 7.00359 3.49628 14.453 0.768452C13.3402 0.273887 -3.48272 5.05725 1.70248 22.0347H1.69475C0.241965 22.5061 0.1956 24.8167 1.01472 26.5399C1.56338 27.699 2.87707 29.3836 2.93116 30.4037C2.94661 30.736 2.8307 31.5551 3.03934 32.0574C3.42572 33.2088 4.72395 33.3015 5.00987 32.3047C6.26174 35.1639 8.71138 38.5254 11.4778 40.0322C13.7961 41.2918 16.2535 41.4464 18.8654 39.7618C21.346 38.1622 23.5483 35.1561 24.7615 32.5288C26.7784 33.232 26.9716 31.4315 26.8634 30.6896C27.2807 29.4532 28.7567 26.2694 29.004 24.7626C29.5681 22.6993 28.0767 21.262 26.2993 22.9929ZM28.3317 24.8244C28.2621 25.2571 26.7862 29.4146 26.8171 30.481C26.8171 30.4732 26.8093 30.4578 26.8093 30.4501C26.7089 31.4392 25.9593 32.3588 24.9702 32.0342C25.4338 30.9446 25.712 29.9323 25.7507 29.1441C24.5065 32.1965 21.4928 36.7789 18.3013 39.1436C16.0217 40.8282 14.5843 41.1605 12.0497 39.4759C8.68047 37.2349 5.43489 32.3433 4.12893 29.1441C4.16757 29.9246 4.43803 30.9137 4.88623 31.9956C3.57255 32.9847 3.2789 31.5165 3.22481 30.4578C3.16299 29.2291 -0.37624 23.4334 1.97294 22.9157C2.6916 22.7457 3.30981 23.4798 3.67301 24.5385C3.97438 24.1057 3.75801 23.3948 3.28663 22.8384C3.6421 15.6672 7.99272 10.6366 13.487 8.77422C13.6879 8.82831 19.2595 9.72471 22.706 14.0212C24.8156 16.6563 25.8357 20.3424 25.4029 25.4426C25.6348 24.9712 25.8743 24.3221 26.0675 23.5493C27.2189 22.4907 28.8417 22.8616 28.3317 24.8244Z" fill="#DE0B8C"/>
<path fill-rule="evenodd" clip-rule="evenodd" d="M28.1462 22.1671C28.2622 22.0975 28.5404 20.9461 28.6176 20.5057C29.3363 16.5182 28.2622 3.05681 16.7404 0.761719C24.9161 4.85733 28.5172 13.1026 28.1462 22.1671Z" fill="#DE0B8C"/>
<path fill-rule="evenodd" clip-rule="evenodd" d="M4.60791 20.2814C7.20437 19.8873 9.83174 20.3896 11.5859 21.9583C12.1964 22.5069 12.6446 23.0788 12.9228 22.9011C13.0155 22.677 12.4359 21.8424 11.9105 21.2396C10.3572 19.4855 7.78394 18.875 4.60791 20.2814Z" fill="#DE0B8C"/>
<path fill-rule="evenodd" clip-rule="evenodd" d="M17.7526 22.2981C19.2594 20.6521 21.7786 19.7866 24.9933 20.2812C21.6936 18.8207 19.0972 19.5007 17.6135 21.394C17.2116 21.9117 17.0571 22.1899 16.8407 22.7231C16.748 23.349 16.9721 23.1481 17.7526 22.2981Z" fill="#DE0B8C"/>
</svg>
