<svg width="34" height="24" viewBox="0 0 34 24" fill="none" xmlns="http://www.w3.org/2000/svg">
<g clip-path="url(#clip0)">
<path d="M29.4403 8.93359C29.1014 9.40974 28.7221 9.85361 28.3347 10.2813C27.9392 10.7091 27.5357 11.1206 27.108 11.5161C26.6803 11.9115 26.2364 12.2828 25.7764 12.6298C25.3164 12.9768 24.8402 13.2996 24.348 13.6063C24.0978 13.7516 23.8557 13.9049 23.5974 14.034C23.4683 14.0986 23.3472 14.1712 23.2181 14.2358L22.8307 14.4214C22.7016 14.4859 22.5644 14.5344 22.4353 14.5989C22.3062 14.6554 22.1771 14.72 22.0399 14.7684C21.7735 14.8652 21.5072 14.9782 21.2328 15.0589C21.0956 15.0993 20.9584 15.1477 20.8212 15.1881L20.4097 15.301L20.1998 15.3575L19.99 15.406L19.5704 15.4947C19.4332 15.527 19.2879 15.5432 19.1426 15.5674C18.9974 15.5916 18.8602 15.6158 18.7149 15.6319L18.2872 15.6803L18.0773 15.7046C18.0047 15.7126 17.9321 15.7126 17.8595 15.7207C17.577 15.7368 17.2865 15.761 16.9959 15.753H16.5682C16.4229 15.753 16.2777 15.7368 16.1405 15.7368L15.7128 15.7126L15.277 15.6803L14.8412 15.6481L14.3973 15.6319C13.8082 15.6077 13.219 15.6239 12.6299 15.6481C12.0408 15.6884 11.4516 15.7449 10.8706 15.8498C10.2895 15.9547 9.71654 16.0919 9.15162 16.2775C8.59477 16.4632 8.04599 16.6972 7.52949 16.9958C7.02106 17.2944 6.53685 17.6414 6.12526 18.0611C5.91543 18.2709 5.72982 18.4969 5.56034 18.739C5.39087 18.9811 5.2456 19.2393 5.14876 19.5137C5.26981 19.2474 5.43122 19.0053 5.61683 18.7793C5.79438 18.5534 5.99614 18.3435 6.21404 18.1499C6.64176 17.7625 7.12598 17.4477 7.64247 17.1814C8.6674 16.6488 9.79724 16.3582 10.9271 16.1888L11.3548 16.1323L11.7825 16.0919L12.0004 16.0758L12.2183 16.0596L12.646 16.0354C13.219 16.0193 13.8001 16.0193 14.3731 16.0435L14.7927 16.0596L15.2285 16.0919L15.6643 16.1242L16.1082 16.1484C16.2535 16.1565 16.4068 16.1726 16.5521 16.1726H16.9959C17.2945 16.1807 17.5851 16.1565 17.8837 16.1404C19.0619 16.0596 20.2321 15.8175 21.3539 15.4382C22.4757 15.0589 23.5409 14.5263 24.5336 13.8887C25.0259 13.5659 25.502 13.2189 25.962 12.8477C26.414 12.4764 26.8497 12.081 27.2694 11.6613C27.681 11.2417 28.0764 10.8059 28.4396 10.354C28.6252 10.128 28.8028 9.89396 28.9722 9.65992C29.1256 9.42588 29.287 9.18377 29.4403 8.93359Z" fill="#838383"/>
<path d="M0.274292 12.9858C0.274292 12.9858 4.62417 15.0356 14.3973 7.12673C21.6444 1.26771 26.196 -0.782143 34 3.47897C34 3.47897 28.6575 -3.91341 17.0121 2.86562C5.36664 9.64466 0.274292 12.9858 0.274292 12.9858Z" fill="#838383"/>
<path d="M11.258 16.633C12.6138 16.5684 14.2521 16.7702 16.0679 16.7944C16.076 16.7944 16.084 16.7944 16.0921 16.7944C16.3342 16.8025 16.5763 16.8025 16.8265 16.7944C16.9395 16.7944 17.0444 16.7863 17.1574 16.7863H17.1816C17.2219 16.7863 17.2623 16.7863 17.3026 16.7783C17.3511 16.7783 17.3995 16.7702 17.4479 16.7702C17.5125 16.7702 17.5851 16.7621 17.6497 16.7621H17.6577C17.6658 16.7621 17.6739 16.7621 17.6739 16.7621C17.7223 16.7621 17.7626 16.7541 17.8111 16.7541C17.8353 16.7541 17.8676 16.7541 17.8918 16.746C17.8998 16.746 17.9079 16.746 17.916 16.746L17.9644 16.7379C17.9886 16.7379 18.0128 16.7379 18.037 16.7298C18.0532 16.7298 18.0693 16.7298 18.0855 16.7298C18.1904 16.7218 18.2953 16.7137 18.4002 16.6976C18.4163 16.6976 18.4244 16.6976 18.4325 16.6976C18.4648 16.6976 18.5051 16.6895 18.5374 16.6895C18.5455 16.6895 18.5455 16.6895 18.5535 16.6895C18.6181 16.6814 18.6827 16.6734 18.7472 16.6653C18.7634 16.6653 18.7714 16.6653 18.7876 16.6572C18.8037 16.6572 18.8198 16.6491 18.8279 16.6491C18.836 16.6491 18.8441 16.6491 18.8521 16.6411C18.9086 16.633 18.9651 16.6249 19.0297 16.6169C19.0377 16.6169 19.0377 16.6169 19.0377 16.6169C19.2556 16.5846 19.4816 16.5523 19.6995 16.5119H19.7076C19.7237 16.5119 19.7318 16.5039 19.7479 16.5039C19.7641 16.5039 19.7883 16.4958 19.8044 16.4958C19.8609 16.4877 19.9174 16.4716 19.9739 16.4635C20.0788 16.4393 20.1837 16.4232 20.2886 16.3909C20.3613 16.3748 20.4258 16.3586 20.4904 16.3425C20.563 16.3263 20.6357 16.3102 20.7002 16.294C20.7406 16.286 20.7729 16.2779 20.8132 16.2618C20.8455 16.2537 20.8778 16.2456 20.9101 16.2376C20.9181 16.2376 20.9262 16.2295 20.9343 16.2295C21.0795 16.1891 21.2248 16.1488 21.3701 16.1004C21.3781 16.1004 21.3781 16.0923 21.3862 16.0923C21.4266 16.0842 21.4588 16.0681 21.4992 16.06C21.6606 16.0116 21.822 15.9551 21.9834 15.8905C22.1287 15.8421 22.2739 15.7856 22.4111 15.7291C24.7273 14.801 27.1403 13.0901 29.521 10.0234C29.5049 10.0961 28.9642 11.9522 27.2775 13.8407C27.8989 13.881 28.9965 13.8891 30.0698 13.5179C30.0698 13.5179 28.7221 14.1231 27.6568 14.2119C28.3509 14.3168 29.2951 14.3814 30.2554 14.1958C30.2554 14.1958 28.8916 14.5831 27.7375 14.5912C28.2944 14.7042 28.9965 14.7849 29.7147 14.7203C29.7147 14.7203 28.0523 15.0351 27.0031 14.793C27.568 15.1158 28.5284 15.4467 30.0214 15.3498C30.0214 15.3498 29.4161 15.5032 28.593 15.5112C28.9642 15.5758 29.3516 15.6242 29.747 15.6323C29.747 15.6323 28.94 15.6888 28.028 15.6161C28.6817 15.7614 29.3838 15.8583 30.0053 15.8098C30.0053 15.8098 28.5284 15.939 27.2049 15.8098C28.5284 16.1084 30.1505 16.2456 30.1505 16.2456C28.6575 16.4797 27.2936 16.286 26.3656 16.06C27.3421 16.5442 28.8835 16.9558 31.1432 16.5926C31.1432 16.5926 28.8916 17.1091 26.7852 16.6249C27.7375 16.9962 28.8109 17.319 29.7793 17.3674C29.7793 17.3674 27.3017 17.2786 25.5101 16.7621C26.5431 17.3674 28.1814 17.9242 30.6186 17.7548C30.6186 17.7548 28.0038 18.1179 25.7038 17.319C26.9143 17.9081 28.714 18.3923 31.2804 18.1502C31.2804 18.1502 28.7302 18.5699 26.2526 17.9727C27.9473 18.5457 30.1989 18.8927 33.1042 18.6183C33.1042 18.6183 29.7067 19.1832 26.2122 18.4892C27.108 18.8039 28.1491 19.0622 29.3516 19.2155C30.2151 19.2558 31.1593 19.2397 32.1762 19.1429C32.0309 19.1671 31.3611 19.2639 30.3846 19.3204C30.9091 19.3608 31.466 19.3769 32.047 19.3769C32.047 19.3769 30.9818 19.4576 29.4403 19.3527C28.2459 19.3688 26.7933 19.3043 25.3164 19.0057C26.8336 19.5383 28.7544 19.9015 31.1512 19.8853C31.1512 19.8853 26.8982 20.2162 23.1455 18.7555C24.6869 19.4899 26.761 20.0871 29.5049 20.1839C29.5614 20.1839 29.6179 20.1759 29.6744 20.1759C29.6582 20.1759 29.626 20.1839 29.5856 20.1839C29.7551 20.192 29.9246 20.192 30.1021 20.192C30.1021 20.192 29.8116 20.2081 29.3193 20.2081C28.3912 20.2888 25.8813 20.4422 23.2585 19.9015C24.3561 20.3453 25.6957 20.6923 27.3421 20.8538C27.3421 20.8538 24.9048 20.7811 22.395 19.8853C23.549 20.5471 25.0582 21.1281 27.0112 21.4752C27.0112 21.4752 24.0333 21.1604 21.3539 19.7481C22.5564 20.5148 24.1947 21.225 26.414 21.6204C26.1154 21.5882 22.8711 21.1846 20.1999 19.5706C21.2813 20.4745 22.8631 21.3783 25.1873 21.9513C25.0017 21.919 21.2894 21.2331 18.8198 19.0783C19.8286 20.2404 21.6283 21.6204 24.7596 22.3871C24.7596 22.3871 21.2409 21.7818 18.723 19.7885C19.6269 20.8699 21.0311 22.032 23.2101 23.0085C23.0971 22.9682 20.3693 21.9513 18.3114 19.9902C18.8602 21.0797 19.8125 22.3548 21.4508 23.638C21.4508 23.638 19.296 22.1773 17.916 20.0548C18.497 21.8545 18.497 23.751 18.497 23.751C18.4002 22.0401 17.8918 20.7488 17.3026 19.8046C18.0209 21.6204 18.0451 23.6541 18.0451 23.6541C17.9079 21.7576 17.23 20.3938 16.5198 19.4576C17.0847 20.9667 17.1009 22.605 17.1009 22.605C16.9637 20.7488 16.2212 19.4899 15.5272 18.699C16.4956 20.1839 16.657 22.3306 16.657 22.3306C16.5037 21.1927 16.1163 20.3211 15.6724 19.6594C16.084 21.0878 16.1002 22.5566 16.1002 22.5566C16.0195 21.2411 15.6724 20.2323 15.2609 19.4737C15.7128 20.6601 15.7935 21.8706 15.7935 21.8706C15.6724 20.9264 15.3819 20.1839 15.0349 19.5948C15.5514 20.9264 15.6563 22.3064 15.6563 22.3064C15.4788 20.9748 15.0026 19.9902 14.478 19.2801C15.1075 20.7004 15.2286 22.3064 15.2286 22.3064C15.0914 21.2896 14.7847 20.4745 14.4135 19.8369C14.8573 21.0878 14.9461 22.3064 14.9461 22.3064C14.8089 21.2492 14.478 20.418 14.0907 19.7643C14.3408 20.6439 14.4538 21.5801 14.4942 22.0643C14.5103 22.2176 14.5184 22.3064 14.5184 22.3064C14.5184 22.2822 14.5103 22.2661 14.5103 22.2418C14.5184 22.3387 14.5184 22.3952 14.5184 22.3952C14.5103 22.2983 14.5022 22.2096 14.4861 22.1127C14.2601 20.6681 13.6791 19.6513 13.0819 18.9653C13.5661 19.8934 13.6549 21.0555 13.6549 21.0555C13.5177 20.0225 13.0899 19.3285 12.6784 18.8846C13.0819 19.845 13.1545 20.886 13.1545 20.886C13.0092 19.7643 12.5492 18.9976 12.1054 18.5053C12.5735 19.4253 12.6542 20.5552 12.6542 20.5552C12.5331 19.6351 12.178 18.9895 11.8148 18.5457C12.5089 19.7643 12.6299 21.3945 12.6299 21.3945C12.4685 20.1678 11.9843 19.3043 11.492 18.7313C11.8633 19.6029 11.9359 20.5552 11.9359 20.5552C11.7826 19.385 11.2499 18.6506 10.798 18.2228C11.4113 19.1751 11.5082 20.5552 11.5082 20.5552C11.3306 19.2155 10.6608 18.4488 10.1766 18.0534C10.1443 18.0534 10.1039 18.0534 10.0717 18.0534L9.93447 18.0614C9.80534 18.0695 9.68429 18.0695 9.56324 18.0776C9.55517 18.0776 9.54709 18.0776 9.53095 18.0776C9.4906 18.0776 9.45832 18.0856 9.41797 18.0856C9.28885 18.0937 9.16779 18.1099 9.03867 18.1179C7.52146 18.2632 6.30284 18.6748 5.23757 19.7481C5.29406 19.6594 7.0211 16.8348 11.258 16.633ZM28.8835 20.2162C27.1807 20.1839 24.001 19.9176 21.3136 18.5941C22.9438 19.4899 25.3971 20.2969 28.8835 20.2162Z" fill="#838383"/>
</g>
<defs>
<clipPath id="clip0">
<rect width="33.7257" height="23.7428" fill="white" transform="matrix(-1 0 0 1 34 0)"/>
</clipPath>
</defs>
</svg>
